%YAML 1.1
%TAG !u! tag:unity3d.com,2011:
--- !u!1 &2151454595700848405
GameObject:
  m_ObjectHideFlags: 0
  m_CorrespondingSourceObject: {fileID: 0}
  m_PrefabInstance: {fileID: 0}
  m_PrefabAsset: {fileID: 0}
  serializedVersion: 6
  m_Component:
  - component: {fileID: 5433013821059435487}
  m_Layer: 0
  m_Name: Wall_Vertical5
  m_TagString: Untagged
  m_Icon: {fileID: 0}
  m_NavMeshLayer: 0
  m_StaticEditorFlags: 0
  m_IsActive: 1
--- !u!4 &5433013821059435487
Transform:
  m_ObjectHideFlags: 0
  m_CorrespondingSourceObject: {fileID: 0}
  m_PrefabInstance: {fileID: 0}
  m_PrefabAsset: {fileID: 0}
  m_GameObject: {fileID: 2151454595700848405}
  m_LocalRotation: {x: 0, y: 0, z: 0, w: 1}
  m_LocalPosition: {x: 0, y: 0, z: -0.000000036857}
  m_LocalScale: {x: 1, y: 1, z: 1}
  m_Children:
  - {fileID: 8881098424728147663}
  m_Father: {fileID: 0}
  m_RootOrder: 0
  m_LocalEulerAnglesHint: {x: 0, y: 0, z: 0}
--- !u!1001 &8881098424728276047
PrefabInstance:
  m_ObjectHideFlags: 0
  serializedVersion: 2
  m_Modification:
    m_TransformParent: {fileID: 5433013821059435487}
    m_Modifications:
    - target: {fileID: 100000, guid: 955c58f903bbd4e20bb2d06bf3b376b8, type: 3}
      propertyPath: m_Name
      value: victorian_wall_brick_1
      objectReference: {fileID: 0}
    - target: {fileID: 400000, guid: 955c58f903bbd4e20bb2d06bf3b376b8, type: 3}
      propertyPath: m_RootOrder
      value: 0
      objectReference: {fileID: 0}
    - target: {fileID: 400000, guid: 955c58f903bbd4e20bb2d06bf3b376b8, type: 3}
      propertyPath: m_LocalScale.x
      value: 0.34296
      objectReference: {fileID: 0}
    - target: {fileID: 400000, guid: 955c58f903bbd4e20bb2d06bf3b376b8, type: 3}
      propertyPath: m_LocalScale.y
      value: 0.807627
      objectReference: {fileID: 0}
    - target: {fileID: 400000, guid: 955c58f903bbd4e20bb2d06bf3b376b8, type: 3}
      propertyPath: m_LocalScale.z
      value: 1.5
      objectReference: {fileID: 0}
    - target: {fileID: 400000, guid: 955c58f903bbd4e20bb2d06bf3b376b8, type: 3}
      propertyPath: m_LocalPosition.x
      value: 1e-15
      objectReference: {fileID: 0}
    - target: {fileID: 400000, guid: 955c58f903bbd4e20bb2d06bf3b376b8, type: 3}
      propertyPath: m_LocalPosition.y
      value: 0
      objectReference: {fileID: 0}
    - target: {fileID: 400000, guid: 955c58f903bbd4e20bb2d06bf3b376b8, type: 3}
      propertyPath: m_LocalPosition.z
      value: 0.502
      objectReference: {fileID: 0}
    - target: {fileID: 400000, guid: 955c58f903bbd4e20bb2d06bf3b376b8, type: 3}
      propertyPath: m_LocalRotation.w
      value: 0.7071068
      objectReference: {fileID: 0}
    - target: {fileID: 400000, guid: 955c58f903bbd4e20bb2d06bf3b376b8, type: 3}
      propertyPath: m_LocalRotation.x
      value: 0
      objectReference: {fileID: 0}
    - target: {fileID: 400000, guid: 955c58f903bbd4e20bb2d06bf3b376b8, type: 3}
      propertyPath: m_LocalRotation.y
      value: 0.7071068
      objectReference: {fileID: 0}
    - target: {fileID: 400000, guid: 955c58f903bbd4e20bb2d06bf3b376b8, type: 3}
      propertyPath: m_LocalRotation.z
      value: 0
      objectReference: {fileID: 0}
    - target: {fileID: 400000, guid: 955c58f903bbd4e20bb2d06bf3b376b8, type: 3}
      propertyPath: m_LocalEulerAnglesHint.x
      value: 0
      objectReference: {fileID: 0}
    - target: {fileID: 400000, guid: 955c58f903bbd4e20bb2d06bf3b376b8, type: 3}
      propertyPath: m_LocalEulerAnglesHint.y
      value: 90
      objectReference: {fileID: 0}
    - target: {fileID: 400000, guid: 955c58f903bbd4e20bb2d06bf3b376b8, type: 3}
      propertyPath: m_LocalEulerAnglesHint.z
      value: 0
      objectReference: {fileID: 0}
    m_RemovedComponents: []
  m_SourcePrefab: {fileID: 100100000, guid: 955c58f903bbd4e20bb2d06bf3b376b8, type: 3}
--- !u!4 &8881098424728147663 stripped
Transform:
  m_CorrespondingSourceObject: {fileID: 400000, guid: 955c58f903bbd4e20bb2d06bf3b376b8, type: 3}
  m_PrefabInstance: {fileID: 8881098424728276047}
  m_PrefabAsset: {fileID: 0}
