%YAML 1.1
%TAG !u! tag:unity3d.com,2011:
--- !u!1 &7527402492609720958
GameObject:
  m_ObjectHideFlags: 0
  m_CorrespondingSourceObject: {fileID: 0}
  m_PrefabInstance: {fileID: 0}
  m_PrefabAsset: {fileID: 0}
  serializedVersion: 6
  m_Component:
  - component: {fileID: 7527402492609720959}
  m_Layer: 12
  m_Name: Horizontal_Door
  m_TagString: Untagged
  m_Icon: {fileID: 0}
  m_NavMeshLayer: 0
  m_StaticEditorFlags: 0
  m_IsActive: 1
--- !u!4 &7527402492609720959
Transform:
  m_ObjectHideFlags: 0
  m_CorrespondingSourceObject: {fileID: 0}
  m_PrefabInstance: {fileID: 0}
  m_PrefabAsset: {fileID: 0}
  m_GameObject: {fileID: 7527402492609720958}
  m_LocalRotation: {x: 0, y: 0, z: 0, w: 1}
  m_LocalPosition: {x: 0, y: 0, z: 0}
  m_LocalScale: {x: 1, y: 1, z: 1}
  m_Children:
  - {fileID: 4083244618507391600}
  - {fileID: 637261583148032016}
  m_Father: {fileID: 0}
  m_RootOrder: 0
  m_LocalEulerAnglesHint: {x: 0, y: 0, z: 0}
--- !u!1001 &7527402491489938461
PrefabInstance:
  m_ObjectHideFlags: 0
  serializedVersion: 2
  m_Modification:
    m_TransformParent: {fileID: 7527402492609720959}
    m_Modifications:
    - target: {fileID: 416386656469751746, guid: 9175d08a6bdddeb48afa15d1b714d918, type: 3}
      propertyPath: m_Name
      value: Door
      objectReference: {fileID: 0}
    - target: {fileID: 5826582559400492653, guid: 9175d08a6bdddeb48afa15d1b714d918, type: 3}
      propertyPath: m_RootOrder
      value: 0
      objectReference: {fileID: 0}
    - target: {fileID: 5826582559400492653, guid: 9175d08a6bdddeb48afa15d1b714d918, type: 3}
      propertyPath: m_LocalPosition.x
      value: 0
      objectReference: {fileID: 0}
    - target: {fileID: 5826582559400492653, guid: 9175d08a6bdddeb48afa15d1b714d918, type: 3}
      propertyPath: m_LocalPosition.y
      value: 0
      objectReference: {fileID: 0}
    - target: {fileID: 5826582559400492653, guid: 9175d08a6bdddeb48afa15d1b714d918, type: 3}
      propertyPath: m_LocalPosition.z
      value: 0
      objectReference: {fileID: 0}
    - target: {fileID: 5826582559400492653, guid: 9175d08a6bdddeb48afa15d1b714d918, type: 3}
      propertyPath: m_LocalRotation.w
      value: 1
      objectReference: {fileID: 0}
    - target: {fileID: 5826582559400492653, guid: 9175d08a6bdddeb48afa15d1b714d918, type: 3}
      propertyPath: m_LocalRotation.x
      value: -0
      objectReference: {fileID: 0}
    - target: {fileID: 5826582559400492653, guid: 9175d08a6bdddeb48afa15d1b714d918, type: 3}
      propertyPath: m_LocalRotation.y
      value: -0
      objectReference: {fileID: 0}
    - target: {fileID: 5826582559400492653, guid: 9175d08a6bdddeb48afa15d1b714d918, type: 3}
      propertyPath: m_LocalRotation.z
      value: -0
      objectReference: {fileID: 0}
    - target: {fileID: 5826582559400492653, guid: 9175d08a6bdddeb48afa15d1b714d918, type: 3}
      propertyPath: m_LocalEulerAnglesHint.x
      value: 0
      objectReference: {fileID: 0}
    - target: {fileID: 5826582559400492653, guid: 9175d08a6bdddeb48afa15d1b714d918, type: 3}
      propertyPath: m_LocalEulerAnglesHint.y
      value: 0
      objectReference: {fileID: 0}
    - target: {fileID: 5826582559400492653, guid: 9175d08a6bdddeb48afa15d1b714d918, type: 3}
      propertyPath: m_LocalEulerAnglesHint.z
      value: 0
      objectReference: {fileID: 0}
    m_RemovedComponents: []
  m_SourcePrefab: {fileID: 100100000, guid: 9175d08a6bdddeb48afa15d1b714d918, type: 3}
--- !u!4 &4083244618507391600 stripped
Transform:
  m_CorrespondingSourceObject: {fileID: 5826582559400492653, guid: 9175d08a6bdddeb48afa15d1b714d918, type: 3}
  m_PrefabInstance: {fileID: 7527402491489938461}
  m_PrefabAsset: {fileID: 0}
--- !u!1001 &7527402492192464016
PrefabInstance:
  m_ObjectHideFlags: 0
  serializedVersion: 2
  m_Modification:
    m_TransformParent: {fileID: 7527402492609720959}
    m_Modifications:
    - target: {fileID: 4463566038210007903, guid: 49a5f24a081cbbc44bd23d76c2869723, type: 3}
      propertyPath: m_Name
      value: Wall_Entrance
      objectReference: {fileID: 0}
    - target: {fileID: 6966706505589406848, guid: 49a5f24a081cbbc44bd23d76c2869723, type: 3}
      propertyPath: m_RootOrder
      value: 1
      objectReference: {fileID: 0}
    - target: {fileID: 6966706505589406848, guid: 49a5f24a081cbbc44bd23d76c2869723, type: 3}
      propertyPath: m_LocalPosition.x
      value: 0
      objectReference: {fileID: 0}
    - target: {fileID: 6966706505589406848, guid: 49a5f24a081cbbc44bd23d76c2869723, type: 3}
      propertyPath: m_LocalPosition.y
      value: 0
      objectReference: {fileID: 0}
    - target: {fileID: 6966706505589406848, guid: 49a5f24a081cbbc44bd23d76c2869723, type: 3}
      propertyPath: m_LocalPosition.z
      value: 0
      objectReference: {fileID: 0}
    - target: {fileID: 6966706505589406848, guid: 49a5f24a081cbbc44bd23d76c2869723, type: 3}
      propertyPath: m_LocalRotation.w
      value: 1
      objectReference: {fileID: 0}
    - target: {fileID: 6966706505589406848, guid: 49a5f24a081cbbc44bd23d76c2869723, type: 3}
      propertyPath: m_LocalRotation.x
      value: -0
      objectReference: {fileID: 0}
    - target: {fileID: 6966706505589406848, guid: 49a5f24a081cbbc44bd23d76c2869723, type: 3}
      propertyPath: m_LocalRotation.y
      value: -0
      objectReference: {fileID: 0}
    - target: {fileID: 6966706505589406848, guid: 49a5f24a081cbbc44bd23d76c2869723, type: 3}
      propertyPath: m_LocalRotation.z
      value: -0
      objectReference: {fileID: 0}
    - target: {fileID: 6966706505589406848, guid: 49a5f24a081cbbc44bd23d76c2869723, type: 3}
      propertyPath: m_LocalEulerAnglesHint.x
      value: 0
      objectReference: {fileID: 0}
    - target: {fileID: 6966706505589406848, guid: 49a5f24a081cbbc44bd23d76c2869723, type: 3}
      propertyPath: m_LocalEulerAnglesHint.y
      value: 0
      objectReference: {fileID: 0}
    - target: {fileID: 6966706505589406848, guid: 49a5f24a081cbbc44bd23d76c2869723, type: 3}
      propertyPath: m_LocalEulerAnglesHint.z
      value: 0
      objectReference: {fileID: 0}
    m_RemovedComponents: []
  m_SourcePrefab: {fileID: 100100000, guid: 49a5f24a081cbbc44bd23d76c2869723, type: 3}
--- !u!4 &637261583148032016 stripped
Transform:
  m_CorrespondingSourceObject: {fileID: 6966706505589406848, guid: 49a5f24a081cbbc44bd23d76c2869723, type: 3}
  m_PrefabInstance: {fileID: 7527402492192464016}
  m_PrefabAsset: {fileID: 0}
